<?xml version="1.0" encoding="utf-8"?>
<!-- Generator: Adobe Illustrator 18.0.0, SVG Export Plug-In . SVG Version: 6.00 Build 0)  -->
<!DOCTYPE svg PUBLIC "-//W3C//DTD SVG 1.1//EN" "http://www.w3.org/Graphics/SVG/1.1/DTD/svg11.dtd">
<svg version="1.1" id="Layer_1" xmlns="http://www.w3.org/2000/svg" xmlns:xlink="http://www.w3.org/1999/xlink" x="0px" y="0px"
	 viewBox="0 123.3 597.6 595.3" enable-background="new 0 123.3 597.6 595.3" xml:space="preserve">
<rect y="123.3" fill="none" width="595.3" height="595.3"/>
<path d="M483.1,123.3H112.2C50.4,123.3,0,173.7,0,235.5v373.2c0,59.5,50.4,109.9,112.2,109.9h373.2c61.8,0,112.2-50.4,112.2-112.2
	V235.5C595.3,173.7,544.9,123.3,483.1,123.3z"/>
<path fill="#FFFFFF" d="M288.5,281.3c38.9,0,73.3,16,98.5,43.5l0,0c0-11.4,9.2-22.9,20.6-22.9h2.3c18.3,0,22.9,18.3,22.9,22.9v194.6
	c-2.3,13.7,13.7,18.3,20.6,11.4c32.1-32.1,68.7-164.8-20.6-242.7c-82.4-73.3-192.3-59.5-251.8-20.6c-61.8,43.5-103,139.7-64.1,229
	c43.5,98.5,162.6,125.9,235.8,98.5c36.6-13.7,52.7,34.3,16,50.4c-57.2,25.2-217.5,22.9-290.8-107.6c-50.4-87-48.1-240.4,84.7-320.5
	C267.9,159.9,403,176,483.1,260.7c84.7,89.3,80.1,254.1-2.3,318.2c-36.6,29.8-93.9,0-93.9-41.2V524c-25.2,25.2-61.8,41.2-98.5,41.2
	c-75.6,0-139.7-66.4-139.7-139.7C148.8,347.7,215.2,281.3,288.5,281.3L288.5,281.3L288.5,281.3L288.5,281.3z M382.4,418.7
	c-2.3-54.9-43.5-87-91.6-87h-2.3c-57.2,0-87,43.5-87,96.2c0,57.2,38.9,91.6,87,91.6c54.9,0,91.6-41.2,93.9-89.3V418.7z"/>
</svg>
